<?xml version="1.0" encoding="UTF-8"?>
<testsuite name="Obtener usuario" tests="3" skipped="0" failures="0" errors="0" timestamp="2024-05-20T14:37:08" hostname="DESKTOP-NB0OHFD" time="1.408">
  <properties/>
  <testcase name="Obtener listado de usuarios" classname="Obtener usuario" time="0.48"/>
  <testcase name="Obtener usuario por id exitoso" classname="Obtener usuario" time="0.49"/>
  <testcase name="Obtener usuario por id fallido" classname="Obtener usuario" time="0.438"/>
  <system-out><![CDATA[Request method:	GET
Request URI:	https://reqres.in/api/users?page=2
Proxy:			<none>
Request params:	<none>
Query params:	<none>
Form params:	<none>
Path params:	<none>
Headers:		Accept=*/*
Cookies:		<none>
Multiparts:		<none>
Body:			<none>
{
    "page": 2,
    "per_page": 6,
    "total": 12,
    "total_pages": 2,
    "data": [
        {
            "id": 7,
            "email": "michael.lawson@reqres.in",
            "first_name": "Michael",
            "last_name": "Lawson",
            "avatar": "https://reqres.in/img/faces/7-image.jpg"
        },
        {
            "id": 8,
            "email": "lindsay.ferguson@reqres.in",
            "first_name": "Lindsay",
            "last_name": "Ferguson",
            "avatar": "https://reqres.in/img/faces/8-image.jpg"
        },
        {
            "id": 9,
            "email": "tobias.funke@reqres.in",
            "first_name": "Tobias",
            "last_name": "Funke",
            "avatar": "https://reqres.in/img/faces/9-image.jpg"
        },
        {
            "id": 10,
            "email": "byron.fields@reqres.in",
            "first_name": "Byron",
            "last_name": "Fields",
            "avatar": "https://reqres.in/img/faces/10-image.jpg"
        },
        {
            "id": 11,
            "email": "george.edwards@reqres.in",
            "first_name": "George",
            "last_name": "Edwards",
            "avatar": "https://reqres.in/img/faces/11-image.jpg"
        },
        {
            "id": 12,
            "email": "rachel.howell@reqres.in",
            "first_name": "Rachel",
            "last_name": "Howell",
            "avatar": "https://reqres.in/img/faces/12-image.jpg"
        }
    ],
    "support": {
        "url": "https://reqres.in/#support-heading",
        "text": "To keep ReqRes free, contributions towards server costs are appreciated!"
    }
}
Request method:	GET
Request URI:	https://reqres.in/api/users/11
Proxy:			<none>
Request params:	<none>
Query params:	<none>
Form params:	<none>
Path params:	id=11
Headers:		Accept=*/*
Cookies:		<none>
Multiparts:		<none>
Body:			<none>
{
    "data": {
        "id": 11,
        "email": "george.edwards@reqres.in",
        "first_name": "George",
        "last_name": "Edwards",
        "avatar": "https://reqres.in/img/faces/11-image.jpg"
    },
    "support": {
        "url": "https://reqres.in/#support-heading",
        "text": "To keep ReqRes free, contributions towards server costs are appreciated!"
    }
}
Request method:	GET
Request URI:	https://reqres.in/api/users/0
Proxy:			<none>
Request params:	<none>
Query params:	<none>
Form params:	<none>
Path params:	id=0
Headers:		Accept=*/*
Cookies:		<none>
Multiparts:		<none>
Body:			<none>
{
    
}
]]></system-out>
  <system-err><![CDATA[[Test worker] INFO io.cucumber.core.plugin.SerenityReporter - Running feature from file:///D:/Sophos/AtomationRest-main/PracticaSophosRest/src/test/resources/features/obtener_users.feature
[Test worker] INFO  - 
  _____   ___   ___   _____     ___   _____     _     ___   _____   ___   ___  
 |_   _| | __| / __| |_   _|   / __| |_   _|   /_\   | _ \ |_   _| | __| |   \ 
   | |   | _|  \__ \   | |     \__ \   | |    / _ \  |   /   | |   | _|  | |) |
   |_|   |___| |___/   |_|     |___/   |_|   /_/ \_\ |_|_\   |_|   |___| |___/ 

Obtener listado de usuarios(obtener-usuario;obtener-listado-de-usuarios)
--------------------------------------------------------------------------------
[Test worker] INFO net.thucydides.core.model.TestOutcome - SetUserStory Obtener usuario
[Test worker] INFO net.thucydides.core.model.TestOutcome - SetUserStory Obtener usuario
[Test worker] INFO  - 
  _____   ___   ___   _____     ___     _     ___   ___   ___   ___  
 |_   _| | __| / __| |_   _|   | _ \   /_\   / __| / __| | __| |   \ 
   | |   | _|  \__ \   | |     |  _/  / _ \  \__ \ \__ \ | _|  | |) |
   |_|   |___| |___/   |_|     |_|   /_/ \_\ |___/ |___/ |___| |___/ 

Obtener listado de usuarios
----------------------------------------------------------------------
[Test worker] INFO io.cucumber.core.plugin.SerenityReporter - Running feature from file:///D:/Sophos/AtomationRest-main/PracticaSophosRest/src/test/resources/features/obtener_users.feature
[Test worker] INFO  - 
  _____   ___   ___   _____     ___   _____     _     ___   _____   ___   ___  
 |_   _| | __| / __| |_   _|   / __| |_   _|   /_\   | _ \ |_   _| | __| |   \ 
   | |   | _|  \__ \   | |     \__ \   | |    / _ \  |   /   | |   | _|  | |) |
   |_|   |___| |___/   |_|     |___/   |_|   /_/ \_\ |_|_\   |_|   |___| |___/ 

Obtener usuario por id exitoso(obtener-usuario;obtener-usuario-por-id-exitoso)
--------------------------------------------------------------------------------
[Test worker] INFO net.thucydides.core.model.TestOutcome - SetUserStory Obtener usuario
[Test worker] INFO net.thucydides.core.model.TestOutcome - SetUserStory Obtener usuario
[Test worker] INFO net.thucydides.core.model.TestOutcome - SetUserStory Obtener usuario
[Test worker] INFO net.thucydides.core.model.TestOutcome - SetUserStory Obtener usuario
[Test worker] INFO net.thucydides.core.model.TestOutcome - SetUserStory Obtener usuario
[Test worker] INFO net.thucydides.core.model.TestOutcome - SetUserStory Obtener usuario
[Test worker] INFO net.thucydides.core.model.TestOutcome - SetUserStory Obtener usuario
[Test worker] INFO net.thucydides.core.model.TestOutcome - SetUserStory Obtener usuario
[Test worker] INFO net.thucydides.core.model.TestOutcome - SetUserStory Obtener usuario
[Test worker] INFO net.thucydides.core.model.TestOutcome - SetUserStory Obtener usuario
[Test worker] INFO net.thucydides.core.model.TestOutcome - SetUserStory Obtener usuario
[Test worker] INFO net.thucydides.core.model.TestOutcome - SetUserStory Obtener usuario
[Test worker] INFO net.thucydides.core.model.TestOutcome - SetUserStory Obtener usuario
[Test worker] INFO net.thucydides.core.model.TestOutcome - SetUserStory Obtener usuario
[Test worker] INFO net.thucydides.core.model.TestOutcome - SetUserStory Obtener usuario
[Test worker] INFO net.thucydides.core.model.TestOutcome - SetUserStory Obtener usuario
[Test worker] INFO  - 
  _____   ___   ___   _____     ___     _     ___   ___   ___   ___  
 |_   _| | __| / __| |_   _|   | _ \   /_\   / __| / __| | __| |   \ 
   | |   | _|  \__ \   | |     |  _/  / _ \  \__ \ \__ \ | _|  | |) |
   |_|   |___| |___/   |_|     |_|   /_/ \_\ |___/ |___/ |___| |___/ 

Obtener usuario por id exitoso
----------------------------------------------------------------------
[Test worker] INFO io.cucumber.core.plugin.SerenityReporter - Running feature from file:///D:/Sophos/AtomationRest-main/PracticaSophosRest/src/test/resources/features/obtener_users.feature
[Test worker] INFO  - 
  _____   ___   ___   _____     ___   _____     _     ___   _____   ___   ___  
 |_   _| | __| / __| |_   _|   / __| |_   _|   /_\   | _ \ |_   _| | __| |   \ 
   | |   | _|  \__ \   | |     \__ \   | |    / _ \  |   /   | |   | _|  | |) |
   |_|   |___| |___/   |_|     |___/   |_|   /_/ \_\ |_|_\   |_|   |___| |___/ 

Obtener usuario por id fallido(obtener-usuario;obtener-usuario-por-id-fallido)
--------------------------------------------------------------------------------
[Test worker] INFO net.thucydides.core.model.TestOutcome - SetUserStory Obtener usuario
[Test worker] INFO net.thucydides.core.model.TestOutcome - SetUserStory Obtener usuario
[Test worker] INFO  - 
  _____   ___   ___   _____     ___     _     ___   ___   ___   ___  
 |_   _| | __| / __| |_   _|   | _ \   /_\   / __| / __| | __| |   \ 
   | |   | _|  \__ \   | |     |  _/  / _ \  \__ \ \__ \ | _|  | |) |
   |_|   |___| |___/   |_|     |_|   /_/ \_\ |___/ |___/ |___| |___/ 

Obtener usuario por id fallido
----------------------------------------------------------------------
]]></system-err>
</testsuite>
