{"name":"Obtener listado de usuarios","id":"obtener-usuario;obtener-listado-de-usuarios","testSteps":[{"number":1,"description":"Given que el usuario cuenta con la api reqres","duration":2,"startTime":"2024-05-20T09:37:08.334-05:00[America/Bogota]","result":"SUCCESS","precondition":false,"level":0},{"number":2,"description":"When se realiza la peticion para listar usuarios","duration":446,"startTime":"2024-05-20T09:37:08.337-05:00[America/Bogota]","result":"SUCCESS","precondition":false,"level":0,"children":[{"number":3,"description":"Yeison listar usuarios","duration":438,"startTime":"2024-05-20T09:37:08.343-05:00[America/Bogota]","result":"SUCCESS","precondition":false,"level":1,"children":[{"number":4,"description":"Yeison executes a GET on the resource /users?page\u003d2","duration":429,"startTime":"2024-05-20T09:37:08.350-05:00[America/Bogota]","result":"SUCCESS","precondition":false,"level":2,"children":[{"number":5,"description":"GET https://reqres.in/api/users?page\u003d2\r","duration":0,"startTime":"2024-05-20T09:37:08.779-05:00[America/Bogota]","result":"SUCCESS","restQuery":{"method":"GET","path":"https://reqres.in/api/users?page\u003d2\r","content":"\r","contentType":"null","requestHeaders":"Accept\u003d*/*\r","requestCookies":"\r","responseHeaders":"Date: Mon, 20 May 2024 14:37:09 GMT\r\nContent-Type: application/json; charset\u003dutf-8\r\nTransfer-Encoding: chunked\r\nConnection: keep-alive\r\nReport-To: {\"group\":\"heroku-nel\",\"max_age\":3600,\"endpoints\":[{\"url\":\"https://nel.heroku.com/reports?ts\u003d1716164884\u0026sid\u003dc4c9725f-1ab0-44d8-820f-430df2718e11\u0026s\u003dofnp8wAqIvNHfIQkdE%2BhDNoTUW5ajXl66yQXKeeTNnk%3D\"}]}\r\nReporting-Endpoints: heroku-nel\u003dhttps://nel.heroku.com/reports?ts\u003d1716164884\u0026sid\u003dc4c9725f-1ab0-44d8-820f-430df2718e11\u0026s\u003dofnp8wAqIvNHfIQkdE%2BhDNoTUW5ajXl66yQXKeeTNnk%3D\r\nNel: {\"report_to\":\"heroku-nel\",\"max_age\":3600,\"success_fraction\":0.005,\"failure_fraction\":0.05,\"response_headers\":[\"Via\"]}\r\nX-Powered-By: Express\r\nAccess-Control-Allow-Origin: *\r\nEtag: W/\"406-ut0vzoCuidvyMf8arZpMpJ6ZRDw\"\r\nVia: 1.1 vegur\r\nCache-Control: max-age\u003d14400\r\nCF-Cache-Status: HIT\r\nAge: 2086\r\nVary: Accept-Encoding\r\nServer: cloudflare\r\nCF-RAY: 886d10255aed5c6a-MIA\r\nContent-Encoding: gzip\r","responseCookies":"\r","responseBody":"{\n    \"page\": 2,\n    \"per_page\": 6,\n    \"total\": 12,\n    \"total_pages\": 2,\n    \"data\": [\n        {\n            \"id\": 7,\n            \"email\": \"michael.lawson@reqres.in\",\n            \"first_name\": \"Michael\",\n            \"last_name\": \"Lawson\",\n            \"avatar\": \"https://reqres.in/img/faces/7-image.jpg\"\n        },\n        {\n            \"id\": 8,\n            \"email\": \"lindsay.ferguson@reqres.in\",\n            \"first_name\": \"Lindsay\",\n            \"last_name\": \"Ferguson\",\n            \"avatar\": \"https://reqres.in/img/faces/8-image.jpg\"\n        },\n        {\n            \"id\": 9,\n            \"email\": \"tobias.funke@reqres.in\",\n            \"first_name\": \"Tobias\",\n            \"last_name\": \"Funke\",\n            \"avatar\": \"https://reqres.in/img/faces/9-image.jpg\"\n        },\n        {\n            \"id\": 10,\n            \"email\": \"byron.fields@reqres.in\",\n            \"first_name\": \"Byron\",\n            \"last_name\": \"Fields\",\n            \"avatar\": \"https://reqres.in/img/faces/10-image.jpg\"\n        },\n        {\n            \"id\": 11,\n            \"email\": \"george.edwards@reqres.in\",\n            \"first_name\": \"George\",\n            \"last_name\": \"Edwards\",\n            \"avatar\": \"https://reqres.in/img/faces/11-image.jpg\"\n        },\n        {\n            \"id\": 12,\n            \"email\": \"rachel.howell@reqres.in\",\n            \"first_name\": \"Rachel\",\n            \"last_name\": \"Howell\",\n            \"avatar\": \"https://reqres.in/img/faces/12-image.jpg\"\n        }\n    ],\n    \"support\": {\n        \"url\": \"https://reqres.in/#support-heading\",\n        \"text\": \"To keep ReqRes free, contributions towards server costs are appreciated!\"\n    }\n}","statusCode":200},"precondition":false,"level":3}]}]}]},{"number":6,"description":"Then la respuesta de la api presenta el codigo 200","duration":4,"startTime":"2024-05-20T09:37:08.784-05:00[America/Bogota]","result":"SUCCESS","precondition":false,"level":0,"children":[{"number":7,"description":"Then obtener codigo should be (200)","duration":1,"startTime":"2024-05-20T09:37:08.786-05:00[America/Bogota]","result":"SUCCESS","precondition":false,"level":1}]},{"number":8,"description":"And en la respuesta debe presentar el campo llamado total con valor 12","duration":14,"startTime":"2024-05-20T09:37:08.788-05:00[America/Bogota]","result":"SUCCESS","precondition":false,"level":0,"children":[{"number":9,"description":"Then obtener valor should be \u002712\u0027","duration":11,"startTime":"2024-05-20T09:37:08.790-05:00[America/Bogota]","result":"SUCCESS","precondition":false,"level":1}]}],"userStory":{"id":"obtener-usuario","storyName":"Obtener usuario","displayName":"Obtener usuario","path":"obtener_users.feature","narrative":"  \"Como estudiante quiero obtener uno o varios usuarios para pasar el taller de sophos\"","type":"feature"},"featureTag":{"name":"Obtener usuario","type":"feature","displayName":"Obtener usuario"},"title":"Obtener listado de usuarios","description":"","backgroundTitle":"","backgroundDescription":"","tags":[{"name":"ListadoUser","type":"tag","displayName":"ListadoUser"},{"name":"ObtenerUser","type":"tag","displayName":"ObtenerUser"},{"name":"Obtener usuario","type":"feature","displayName":"Obtener usuario"}],"startTime":"2024-05-20T09:37:08.328-05:00[America/Bogota]","duration":475,"projectKey":"","isManualTestingUpToDate":false,"manual":false,"testSource":"Cucumber","actors":[{"name":"Yeison","can":["browse the web","call an API at https://reqres.in/api"]}],"result":"SUCCESS"}